{
    "name": "Cliente",
    "fields": [
        {
            "fieldName": "rut",
            "fieldType": "String",
            "fieldValidateRules": [
                "required",
                "unique",
                "maxlength"
            ],
            "fieldValidateRulesMaxlength": 20
        },
        {
            "fieldName": "nombre",
            "fieldType": "String",
            "fieldValidateRules": [
                "required"
            ]
        },
        {
            "fieldName": "otrosNombres",
            "fieldType": "String"
        },
        {
            "fieldName": "apellidoPaterno",
            "fieldType": "String"
        },
        {
            "fieldName": "apellidoMaterno",
            "fieldType": "String"
        },
        {
            "fieldName": "createdDate",
            "fieldType": "Instant"
        },
        {
            "fieldName": "lastUpdDate",
            "fieldType": "Instant"
        }
    ],
    "relationships": [
        {
            "relationshipType": "one-to-many",
            "otherEntityName": "direccion",
            "otherEntityRelationshipName": "cliente",
            "relationshipValidateRules": "required",
            "relationshipName": "direccion"
        }
    ],
    "changelogDate": "20190912023843",
    "entityTableName": "cliente",
    "dto": "no",
    "pagination": "no",
    "service": "no",
    "jpaMetamodelFiltering": false,
    "fluentMethods": true,
    "clientRootFolder": "",
    "applications": "*"
}